^C:\USERS\AGGRE\DOCUMENTS\FALL2021\C++\SALARIES\PAM.SALARIES\PAM.SALARIES.CONSOLEUI\MAIN.CPP
C:\USERS\AGGRE\DOCUMENTS\FALL2021\C++\SALARIES\PAM.SALARIES\PAM.SALARIES.CONSOLEUI\DEBUG\VC142.PDB
C:\USERS\AGGRE\DOCUMENTS\FALL2021\C++\SALARIES\PAM.SALARIES\PAM.SALARIES.CONSOLEUI\DEBUG\VC142.IDB
C:\USERS\AGGRE\DOCUMENTS\FALL2021\C++\SALARIES\PAM.SALARIES\PAM.SALARIES.CONSOLEUI\DEBUG\MAIN.OBJ
